{
  "items": [
    {
      "external_urls": {
        "spotify": "https://open.spotify.com/artist/0hEurMDQu99nJRq8pTxO14"
      },
      "followers": {
        "href": null,
        "total": 6170382
      },
      "genres": [
        "singer-songwriter"
      ],
      "href": "https://api.spotify.com/v1/artists/0hEurMDQu99nJRq8pTxO14",
      "id": "0hEurMDQu99nJRq8pTxO14",
      "images": [
        {
          "height": 640,
          "url": "https://i.scdn.co/image/ab6761610000e5ebe926dd683e1700a6d65bd835",
          "width": 640
        },
        {
          "height": 320,
          "url": "https://i.scdn.co/image/ab67616100005174e926dd683e1700a6d65bd835",
          "width": 320
        },
        {
          "height": 160,
          "url": "https://i.scdn.co/image/ab6761610000f178e926dd683e1700a6d65bd835",
          "width": 160
        }
      ],
      "name": "John Mayer",
      "popularity": 78,
      "type": "artist",
      "uri": "spotify:artist:0hEurMDQu99nJRq8pTxO14"
    },
    {
      "external_urls": {
        "spotify": "https://open.spotify.com/artist/2YZyLoL8N0Wb9xBt1NhZWg"
      },
      "followers": {
        "href": null,
        "total": 40626063
      },
      "genres": [
        "hip hop",
        "west coast hip hop"
      ],
      "href": "https://api.spotify.com/v1/artists/2YZyLoL8N0Wb9xBt1NhZWg",
      "id": "2YZyLoL8N0Wb9xBt1NhZWg",
      "images": [
        {
          "height": 640,
          "url": "https://i.scdn.co/image/ab6761610000e5eb39ba6dcd4355c03de0b50918",
          "width": 640
        },
        {
          "height": 320,
          "url": "https://i.scdn.co/image/ab6761610000517439ba6dcd4355c03de0b50918",
          "width": 320
        },
        {
          "height": 160,
          "url": "https://i.scdn.co/image/ab6761610000f17839ba6dcd4355c03de0b50918",
          "width": 160
        }
      ],
      "name": "Kendrick Lamar",
      "popularity": 96,
      "type": "artist",
      "uri": "spotify:artist:2YZyLoL8N0Wb9xBt1NhZWg"
    },
    {
      "external_urls": {
        "spotify": "https://open.spotify.com/artist/06HL4z0CvFAxyc27GXpf02"
      },
      "followers": {
        "href": null,
        "total": 136371978
      },
      "genres": [],
      "href": "https://api.spotify.com/v1/artists/06HL4z0CvFAxyc27GXpf02",
      "id": "06HL4z0CvFAxyc27GXpf02",
      "images": [
        {
          "height": 640,
          "url": "https://i.scdn.co/image/ab6761610000e5ebe672b5f553298dcdccb0e676",
          "width": 640
        },
        {
          "height": 320,
          "url": "https://i.scdn.co/image/ab67616100005174e672b5f553298dcdccb0e676",
          "width": 320
        },
        {
          "height": 160,
          "url": "https://i.scdn.co/image/ab6761610000f178e672b5f553298dcdccb0e676",
          "width": 160
        }
      ],
      "name": "Taylor Swift",
      "popularity": 98,
      "type": "artist",
      "uri": "spotify:artist:06HL4z0CvFAxyc27GXpf02"
    },
    {
      "external_urls": {
        "spotify": "https://open.spotify.com/artist/5K4W6rqBFWDnAN6FQUkS6x"
      },
      "followers": {
        "href": null,
        "total": 29833427
      },
      "genres": [
        "rap"
      ],
      "href": "https://api.spotify.com/v1/artists/5K4W6rqBFWDnAN6FQUkS6x",
      "id": "5K4W6rqBFWDnAN6FQUkS6x",
      "images": [
        {
          "height": 640,
          "url": "https://i.scdn.co/image/ab6761610000e5eb6e835a500e791bf9c27a422a",
          "width": 640
        },
        {
          "height": 320,
          "url": "https://i.scdn.co/image/ab676161000051746e835a500e791bf9c27a422a",
          "width": 320
        },
        {
          "height": 160,
          "url": "https://i.scdn.co/image/ab6761610000f1786e835a500e791bf9c27a422a",
          "width": 160
        }
      ],
      "name": "Kanye West",
      "popularity": 93,
      "type": "artist",
      "uri": "spotify:artist:5K4W6rqBFWDnAN6FQUkS6x"
    },
    {
      "external_urls": {
        "spotify": "https://open.spotify.com/artist/4EzkuveR9pLvDVFNx6foYD"
      },
      "followers": {
        "href": null,
        "total": 4090839
      },
      "genres": [],
      "href": "https://api.spotify.com/v1/artists/4EzkuveR9pLvDVFNx6foYD",
      "id": "4EzkuveR9pLvDVFNx6foYD",
      "images": [
        {
          "height": 640,
          "url": "https://i.scdn.co/image/ab6761610000e5eb58d57084e75247d33ce25eaf",
          "width": 640
        },
        {
          "height": 320,
          "url": "https://i.scdn.co/image/ab6761610000517458d57084e75247d33ce25eaf",
          "width": 320
        },
        {
          "height": 160,
          "url": "https://i.scdn.co/image/ab6761610000f17858d57084e75247d33ce25eaf",
          "width": 160
        }
      ],
      "name": "James Bay",
      "popularity": 72,
      "type": "artist",
      "uri": "spotify:artist:4EzkuveR9pLvDVFNx6foYD"
    },
    {
      "external_urls": {
        "spotify": "https://open.spotify.com/artist/3MZsBdqDrRTJihTHQrO6Dq"
      },
      "followers": {
        "href": null,
        "total": 10194794
      },
      "genres": [],
      "href": "https://api.spotify.com/v1/artists/3MZsBdqDrRTJihTHQrO6Dq",
      "id": "3MZsBdqDrRTJihTHQrO6Dq",
      "images": [
        {
          "height": 640,
          "url": "https://i.scdn.co/image/ab6761610000e5eb4111c95b5f430c3265c7304b",
          "width": 640
        },
        {
          "height": 320,
          "url": "https://i.scdn.co/image/ab676161000051744111c95b5f430c3265c7304b",
          "width": 320
        },
        {
          "height": 160,
          "url": "https://i.scdn.co/image/ab6761610000f1784111c95b5f430c3265c7304b",
          "width": 160
        }
      ],
      "name": "Joji",
      "popularity": 80,
      "type": "artist",
      "uri": "spotify:artist:3MZsBdqDrRTJihTHQrO6Dq"
    },
    {
      "external_urls": {
        "spotify": "https://open.spotify.com/artist/3TVXtAsR1Inumwj472S9r4"
      },
      "followers": {
        "href": null,
        "total": 98070286
      },
      "genres": [
        "rap",
        "hip hop"
      ],
      "href": "https://api.spotify.com/v1/artists/3TVXtAsR1Inumwj472S9r4",
      "id": "3TVXtAsR1Inumwj472S9r4",
      "images": [
        {
          "height": 640,
          "url": "https://i.scdn.co/image/ab6761610000e5eb4293385d324db8558179afd9",
          "width": 640
        },
        {
          "height": 320,
          "url": "https://i.scdn.co/image/ab676161000051744293385d324db8558179afd9",
          "width": 320
        },
        {
          "height": 160,
          "url": "https://i.scdn.co/image/ab6761610000f1784293385d324db8558179afd9",
          "width": 160
        }
      ],
      "name": "Drake",
      "popularity": 98,
      "type": "artist",
      "uri": "spotify:artist:3TVXtAsR1Inumwj472S9r4"
    },
    {
      "external_urls": {
        "spotify": "https://open.spotify.com/artist/2TzZg302CB0oW5ZMeTW98p"
      },
      "followers": {
        "href": null,
        "total": 37429
      },
      "genres": [],
      "href": "https://api.spotify.com/v1/artists/2TzZg302CB0oW5ZMeTW98p",
      "id": "2TzZg302CB0oW5ZMeTW98p",
      "images": [
        {
          "height": 640,
          "url": "https://i.scdn.co/image/ab6761610000e5eb2c591408e2fd98646ac796b5",
          "width": 640
        },
        {
          "height": 320,
          "url": "https://i.scdn.co/image/ab676161000051742c591408e2fd98646ac796b5",
          "width": 320
        },
        {
          "height": 160,
          "url": "https://i.scdn.co/image/ab6761610000f1782c591408e2fd98646ac796b5",
          "width": 160
        }
      ],
      "name": "stories",
      "popularity": 40,
      "type": "artist",
      "uri": "spotify:artist:2TzZg302CB0oW5ZMeTW98p"
    },
    {
      "external_urls": {
        "spotify": "https://open.spotify.com/artist/6U3ybJ9UHNKEdsH7ktGBZ7"
      },
      "followers": {
        "href": null,
        "total": 2048704
      },
      "genres": [],
      "href": "https://api.spotify.com/v1/artists/6U3ybJ9UHNKEdsH7ktGBZ7",
      "id": "6U3ybJ9UHNKEdsH7ktGBZ7",
      "images": [
        {
          "height": 640,
          "url": "https://i.scdn.co/image/ab6761610000e5eb02e4e47e711e07e363ecc6e0",
          "width": 640
        },
        {
          "height": 320,
          "url": "https://i.scdn.co/image/ab6761610000517402e4e47e711e07e363ecc6e0",
          "width": 320
        },
        {
          "height": 160,
          "url": "https://i.scdn.co/image/ab6761610000f17802e4e47e711e07e363ecc6e0",
          "width": 160
        }
      ],
      "name": "JID",
      "popularity": 77,
      "type": "artist",
      "uri": "spotify:artist:6U3ybJ9UHNKEdsH7ktGBZ7"
    },
    {
      "external_urls": {
        "spotify": "https://open.spotify.com/artist/4dpARuHxo51G3z768sgnrY"
      },
      "followers": {
        "href": null,
        "total": 63820410
      },
      "genres": [
        "soft pop"
      ],
      "href": "https://api.spotify.com/v1/artists/4dpARuHxo51G3z768sgnrY",
      "id": "4dpARuHxo51G3z768sgnrY",
      "images": [
        {
          "height": 640,
          "url": "https://i.scdn.co/image/ab6761610000e5eb68f6e5892075d7f22615bd17",
          "width": 640
        },
        {
          "height": 320,
          "url": "https://i.scdn.co/image/ab6761610000517468f6e5892075d7f22615bd17",
          "width": 320
        },
        {
          "height": 160,
          "url": "https://i.scdn.co/image/ab6761610000f17868f6e5892075d7f22615bd17",
          "width": 160
        }
      ],
      "name": "Adele",
      "popularity": 87,
      "type": "artist",
      "uri": "spotify:artist:4dpARuHxo51G3z768sgnrY"
    },
    {
      "external_urls": {
        "spotify": "https://open.spotify.com/artist/46gyXjRIvN1NL1eCB8GBxo"
      },
      "followers": {
        "href": null,
        "total": 3138606
      },
      "genres": [
        "pop punk",
        "emo",
        "emo pop",
        "punk"
      ],
      "href": "https://api.spotify.com/v1/artists/46gyXjRIvN1NL1eCB8GBxo",
      "id": "46gyXjRIvN1NL1eCB8GBxo",
      "images": [
        {
          "height": 640,
          "url": "https://i.scdn.co/image/ab6761610000e5ebc42923f098c078d2caace1b7",
          "width": 640
        },
        {
          "height": 320,
          "url": "https://i.scdn.co/image/ab67616100005174c42923f098c078d2caace1b7",
          "width": 320
        },
        {
          "height": 160,
          "url": "https://i.scdn.co/image/ab6761610000f178c42923f098c078d2caace1b7",
          "width": 160
        }
      ],
      "name": "All Time Low",
      "popularity": 71,
      "type": "artist",
      "uri": "spotify:artist:46gyXjRIvN1NL1eCB8GBxo"
    },
    {
      "external_urls": {
        "spotify": "https://open.spotify.com/artist/6XyY86QOPPrYVGvF9ch6wz"
      },
      "followers": {
        "href": null,
        "total": 29739802
      },
      "genres": [
        "nu metal",
        "rap metal",
        "rock",
        "alternative metal"
      ],
      "href": "https://api.spotify.com/v1/artists/6XyY86QOPPrYVGvF9ch6wz",
      "id": "6XyY86QOPPrYVGvF9ch6wz",
      "images": [
        {
          "height": 640,
          "url": "https://i.scdn.co/image/ab6761610000e5eba49c7eec5131a21a0bfb737b",
          "width": 640
        },
        {
          "height": 320,
          "url": "https://i.scdn.co/image/ab67616100005174a49c7eec5131a21a0bfb737b",
          "width": 320
        },
        {
          "height": 160,
          "url": "https://i.scdn.co/image/ab6761610000f178a49c7eec5131a21a0bfb737b",
          "width": 160
        }
      ],
      "name": "Linkin Park",
      "popularity": 91,
      "type": "artist",
      "uri": "spotify:artist:6XyY86QOPPrYVGvF9ch6wz"
    },
    {
      "external_urls": {
        "spotify": "https://open.spotify.com/artist/6fxyWrfmjcbj5d12gXeiNV"
      },
      "followers": {
        "href": null,
        "total": 2784685
      },
      "genres": [
        "punk rap"
      ],
      "href": "https://api.spotify.com/v1/artists/6fxyWrfmjcbj5d12gXeiNV",
      "id": "6fxyWrfmjcbj5d12gXeiNV",
      "images": [
        {
          "height": 640,
          "url": "https://i.scdn.co/image/ab6761610000e5eb8e265da892579da2139b659f",
          "width": 640
        },
        {
          "height": 320,
          "url": "https://i.scdn.co/image/ab676161000051748e265da892579da2139b659f",
          "width": 320
        },
        {
          "height": 160,
          "url": "https://i.scdn.co/image/ab6761610000f1788e265da892579da2139b659f",
          "width": 160
        }
      ],
      "name": "Denzel Curry",
      "popularity": 73,
      "type": "artist",
      "uri": "spotify:artist:6fxyWrfmjcbj5d12gXeiNV"
    },
    {
      "external_urls": {
        "spotify": "https://open.spotify.com/artist/7tYKF4w9nC0nq9CsPZTHyP"
      },
      "followers": {
        "href": null,
        "total": 29283914
      },
      "genres": [
        "r&b"
      ],
      "href": "https://api.spotify.com/v1/artists/7tYKF4w9nC0nq9CsPZTHyP",
      "id": "7tYKF4w9nC0nq9CsPZTHyP",
      "images": [
        {
          "height": 640,
          "url": "https://i.scdn.co/image/ab6761610000e5eb0895066d172e1f51f520bc65",
          "width": 640
        },
        {
          "height": 320,
          "url": "https://i.scdn.co/image/ab676161000051740895066d172e1f51f520bc65",
          "width": 320
        },
        {
          "height": 160,
          "url": "https://i.scdn.co/image/ab6761610000f1780895066d172e1f51f520bc65",
          "width": 160
        }
      ],
      "name": "SZA",
      "popularity": 94,
      "type": "artist",
      "uri": "spotify:artist:7tYKF4w9nC0nq9CsPZTHyP"
    },
    {
      "external_urls": {
        "spotify": "https://open.spotify.com/artist/0fA0VVWsXO9YnASrzqfmYu"
      },
      "followers": {
        "href": null,
        "total": 7507734
      },
      "genres": [],
      "href": "https://api.spotify.com/v1/artists/0fA0VVWsXO9YnASrzqfmYu",
      "id": "0fA0VVWsXO9YnASrzqfmYu",
      "images": [
        {
          "height": 640,
          "url": "https://i.scdn.co/image/ab6761610000e5eb876faa285687786c3d314ae0",
          "width": 640
        },
        {
          "height": 320,
          "url": "https://i.scdn.co/image/ab67616100005174876faa285687786c3d314ae0",
          "width": 320
        },
        {
          "height": 160,
          "url": "https://i.scdn.co/image/ab6761610000f178876faa285687786c3d314ae0",
          "width": 160
        }
      ],
      "name": "Kid Cudi",
      "popularity": 81,
      "type": "artist",
      "uri": "spotify:artist:0fA0VVWsXO9YnASrzqfmYu"
    },
    {
      "external_urls": {
        "spotify": "https://open.spotify.com/artist/6l3HvQ5sa6mXTsMTB19rO5"
      },
      "followers": {
        "href": null,
        "total": 26172627
      },
      "genres": [
        "rap"
      ],
      "href": "https://api.spotify.com/v1/artists/6l3HvQ5sa6mXTsMTB19rO5",
      "id": "6l3HvQ5sa6mXTsMTB19rO5",
      "images": [
        {
          "height": 640,
          "url": "https://i.scdn.co/image/ab6761610000e5eb4b053c29fd4b317ff825f0dc",
          "width": 640
        },
        {
          "height": 320,
          "url": "https://i.scdn.co/image/ab676161000051744b053c29fd4b317ff825f0dc",
          "width": 320
        },
        {
          "height": 160,
          "url": "https://i.scdn.co/image/ab6761610000f1784b053c29fd4b317ff825f0dc",
          "width": 160
        }
      ],
      "name": "J. Cole",
      "popularity": 86,
      "type": "artist",
      "uri": "spotify:artist:6l3HvQ5sa6mXTsMTB19rO5"
    },
    {
      "external_urls": {
        "spotify": "https://open.spotify.com/artist/5SXuuuRpukkTvsLuUknva1"
      },
      "followers": {
        "href": null,
        "total": 2918706
      },
      "genres": [],
      "href": "https://api.spotify.com/v1/artists/5SXuuuRpukkTvsLuUknva1",
      "id": "5SXuuuRpukkTvsLuUknva1",
      "images": [
        {
          "height": 640,
          "url": "https://i.scdn.co/image/ab6761610000e5ebd6f2323c1971fd5a70cd0255",
          "width": 640
        },
        {
          "height": 320,
          "url": "https://i.scdn.co/image/ab67616100005174d6f2323c1971fd5a70cd0255",
          "width": 320
        },
        {
          "height": 160,
          "url": "https://i.scdn.co/image/ab6761610000f178d6f2323c1971fd5a70cd0255",
          "width": 160
        }
      ],
      "name": "Baby Keem",
      "popularity": 77,
      "type": "artist",
      "uri": "spotify:artist:5SXuuuRpukkTvsLuUknva1"
    },
    {
      "external_urls": {
        "spotify": "https://open.spotify.com/artist/6KImCVD70vtIoJWnq6nGn3"
      },
      "followers": {
        "href": null,
        "total": 33647522
      },
      "genres": [],
      "href": "https://api.spotify.com/v1/artists/6KImCVD70vtIoJWnq6nGn3",
      "id": "6KImCVD70vtIoJWnq6nGn3",
      "images": [
        {
          "height": 640,
          "url": "https://i.scdn.co/image/ab6761610000e5ebf7db7c8ede90a019c54590bb",
          "width": 640
        },
        {
          "height": 320,
          "url": "https://i.scdn.co/image/ab67616100005174f7db7c8ede90a019c54590bb",
          "width": 320
        },
        {
          "height": 160,
          "url": "https://i.scdn.co/image/ab6761610000f178f7db7c8ede90a019c54590bb",
          "width": 160
        }
      ],
      "name": "Harry Styles",
      "popularity": 85,
      "type": "artist",
      "uri": "spotify:artist:6KImCVD70vtIoJWnq6nGn3"
    },
    {
      "external_urls": {
        "spotify": "https://open.spotify.com/artist/2Waw2sSbqvAwK8NwACNjVo"
      },
      "followers": {
        "href": null,
        "total": 2040416
      },
      "genres": [
        "comedy"
      ],
      "href": "https://api.spotify.com/v1/artists/2Waw2sSbqvAwK8NwACNjVo",
      "id": "2Waw2sSbqvAwK8NwACNjVo",
      "images": [
        {
          "height": 640,
          "url": "https://i.scdn.co/image/ab6761610000e5eb30d9a4acdf8cd3e8c0ad39ab",
          "width": 640
        },
        {
          "height": 320,
          "url": "https://i.scdn.co/image/ab6761610000517430d9a4acdf8cd3e8c0ad39ab",
          "width": 320
        },
        {
          "height": 160,
          "url": "https://i.scdn.co/image/ab6761610000f17830d9a4acdf8cd3e8c0ad39ab",
          "width": 160
        }
      ],
      "name": "Bo Burnham",
      "popularity": 67,
      "type": "artist",
      "uri": "spotify:artist:2Waw2sSbqvAwK8NwACNjVo"
    },
    {
      "external_urls": {
        "spotify": "https://open.spotify.com/artist/0iEtIxbK0KxaSlF7G42ZOp"
      },
      "followers": {
        "href": null,
        "total": 10870445
      },
      "genres": [],
      "href": "https://api.spotify.com/v1/artists/0iEtIxbK0KxaSlF7G42ZOp",
      "id": "0iEtIxbK0KxaSlF7G42ZOp",
      "images": [
        {
          "height": 640,
          "url": "https://i.scdn.co/image/ab6761610000e5ebdf9a1555f53a20087b8c5a5c",
          "width": 640
        },
        {
          "height": 320,
          "url": "https://i.scdn.co/image/ab67616100005174df9a1555f53a20087b8c5a5c",
          "width": 320
        },
        {
          "height": 160,
          "url": "https://i.scdn.co/image/ab6761610000f178df9a1555f53a20087b8c5a5c",
          "width": 160
        }
      ],
      "name": "Metro Boomin",
      "popularity": 88,
      "type": "artist",
      "uri": "spotify:artist:0iEtIxbK0KxaSlF7G42ZOp"
    }
  ],
  "total": 1434,
  "limit": 20,
  "offset": 0,
  "href": "https://api.spotify.com/v1/me/top/artists?time_range=long_term&locale=en-GB,en;q%3D0.5",
  "next": "https://api.spotify.com/v1/me/top/artists?offset=20&limit=20&time_range=long_term&locale=en-GB,en;q%3D0.5",
  "previous": null
}